^C:\CSCI_420\EXTERNAL\IMAGEIO\IMAGEIO.CPP
/c /I../external/glm /I../external/imageIO /I"../external/jpeg-9a-win32" /I"../external/glew-1.13.0/include" /I"../external/freeglut-3.0.0-win32/include" /ZI /nologo /W3 /WX- /Od /Oy- /D WIN32 /D _DEBUG /D _CONSOLE /D _LIB /D _CRT_SECURE_NO_WARNINGS /D "SHADER_BASE_PATH=R\"(C:\CSCI_420\hw3-starterCode\../OpenGLHelper-starterCode/)\"" /Gm /EHsc /RTC1 /MDd /GS /fp:precise /Zc:wchar_t /Zc:forScope /Fo"C:\CSCI_420\HW3-STARTERCODE\\DEBUG\\" /Fd"C:\CSCI_420\HW3-STARTERCODE\\DEBUG\VC120.PDB" /Gd /TP /analyze- C:\CSCI_420\EXTERNAL\IMAGEIO\IMAGEIO.CPP
^C:\CSCI_420\HW3-STARTERCODE\HW3.CPP
/c /I../external/glm /I../external/imageIO /I"../external/jpeg-9a-win32" /I"../external/glew-1.13.0/include" /I"../external/freeglut-3.0.0-win32/include" /ZI /nologo /W3 /WX- /Od /Oy- /D WIN32 /D _DEBUG /D _CONSOLE /D _LIB /D _CRT_SECURE_NO_WARNINGS /D "SHADER_BASE_PATH=R\"(C:\CSCI_420\hw3-starterCode\../OpenGLHelper-starterCode/)\"" /Gm /EHsc /RTC1 /MDd /GS /fp:precise /Zc:wchar_t /Zc:forScope /Fo"C:\CSCI_420\HW3-STARTERCODE\\DEBUG\\" /Fd"C:\CSCI_420\HW3-STARTERCODE\\DEBUG\VC120.PDB" /Gd /TP /analyze- C:\CSCI_420\HW3-STARTERCODE\HW3.CPP
^C:\CSCI_420\HW3-STARTERCODE\VECTOR3.CPP
/c /I../external/glm /I../external/imageIO /I"../external/jpeg-9a-win32" /I"../external/glew-1.13.0/include" /I"../external/freeglut-3.0.0-win32/include" /ZI /nologo /W3 /WX- /Od /Oy- /D WIN32 /D _DEBUG /D _CONSOLE /D _LIB /D _CRT_SECURE_NO_WARNINGS /D "SHADER_BASE_PATH=R\"(C:\CSCI_420\hw3-starterCode\../OpenGLHelper-starterCode/)\"" /Gm /EHsc /RTC1 /MDd /GS /fp:precise /Zc:wchar_t /Zc:forScope /Fo"C:\CSCI_420\HW3-STARTERCODE\\DEBUG\\" /Fd"C:\CSCI_420\HW3-STARTERCODE\\DEBUG\VC120.PDB" /Gd /TP /analyze- C:\CSCI_420\HW3-STARTERCODE\VECTOR3.CPP
